1,'23Ensemble_plant',3.00.9,2.35.00
2,'BonnieKaneShaynaDulberger',3.00.455,2.52.8
3,'Chris_Flywheel_improv',3.01.2,1.16.8
4,'GynaBootlegBostonHassle',3.00.017,2.42.6
5,'HowlConcert',3.05.1,2.50.1
6,'MaryHalvorson',2.59.4,2.15.8
7,'MattRobidoux',3.06.00,2.54.6
8,'OneArmedMist',3.00.3,1.57.6
9,'ScottThompson',3.04.9,2.26.25
10,'ShiningWizard_TheTimeIsNow',3.01.8,2.55.00
11,'XFEST_1',3.05.4,2.52.00
excerptID, Title, Length, StopTime